{
  "images" : [
    {
      "idiom" : "universal",
      "filename" : "ic_search_recently.png",
      "scale" : "1x"
    },
    {
      "idiom" : "universal",
      "filename" : "ic_search_recently@2x.png.png",
      "scale" : "2x"
    },
    {
      "idiom" : "universal",
      "filename" : "ic_search_recently@3x.png.png",
      "scale" : "3x"
    }
  ],
  "info" : {
    "version" : 1,
    "author" : "xcode"
  }
}